EESchema Schematic File Version 4
EELAYER 30 0
EELAYER END
$Descr A4 11693 8268
encoding utf-8
Sheet 1 4
Title ""
Date ""
Rev ""
Comp ""
Comment1 ""
Comment2 ""
Comment3 ""
Comment4 ""
$EndDescr
$Sheet
S 1000 1000 500  150 
U 5EF91E25
F0 "ears_xml_1" 50
F1 "ears_xml_1.sch" 50
$EndSheet
$Sheet
S 3000 1000 500  150 
U 5EF91FAC
F0 "ears_xml_2" 50
F1 "ears_xml_2.sch" 50
$EndSheet
$Sheet
S 5000 1000 500  150 
U 5EF923F4
F0 "ears_xml_3" 50
F1 "ears_xml_3.sch" 50
$EndSheet
$EndSCHEMATC
