EESchema Schematic File Version 4
EELAYER 30 0
EELAYER END
$Descr User 11774 8268
encoding utf-8
Sheet 3 4
Title ""
Date ""
Rev ""
Comp ""
Comment1 ""
Comment2 ""
Comment3 ""
Comment4 ""
$EndDescr
Wire Wire Line
	3300 2600 3200 2600
Text GLabel 3200 2600 0    50   BiDi ~ 0
GND_PCB2
Wire Wire Line
	9400 2500 9300 2500
Text GLabel 9300 2500 0    50   BiDi ~ 0
GND_PCB2
Wire Wire Line
	5400 2700 5300 2700
Text GLabel 5300 2700 0    50   BiDi ~ 0
GND_PCB2
Text GLabel 7600 2900 0    50   BiDi ~ 0
GND_PCB2
Text GLabel 7900 3150 0    50   BiDi ~ 0
GND_PCB2
Wire Wire Line
	8200 1300 8100 1300
Text GLabel 8100 1300 0    50   BiDi ~ 0
GND_PCB2
Wire Wire Line
	9800 5800 9700 5800
Wire Wire Line
	9700 5800 9700 5900
Wire Wire Line
	8500 5700 8400 5700
Text GLabel 8400 5700 0    50   BiDi ~ 0
GND_PCB3
Text GLabel 6400 6400 0    50   BiDi ~ 0
GND_PCB3
Wire Wire Line
	4300 5000 4300 4900
Text GLabel 4300 5000 0    39   BiDi ~ 0
GND_PCB3
Wire Wire Line
	8700 4300 8600 4300
Text GLabel 8600 4300 0    50   BiDi ~ 0
GND_PCB3
Text GLabel 5500 4700 0    39   BiDi ~ 0
GND_PCB3
Text GLabel 6100 4700 0    39   BiDi ~ 0
GND_PCB3
Wire Wire Line
	3900 2500 4200 2500
Wire Wire Line
	4200 2500 4400 2500
Wire Wire Line
	3900 2100 4200 2100
Wire Wire Line
	4200 2100 4200 2500
Connection ~ 4200 2500
Wire Wire Line
	3700 2100 3200 2100
Wire Wire Line
	3200 2100 3200 2400
Wire Wire Line
	3200 2400 3300 2400
Wire Wire Line
	3200 1800 3200 2100
Wire Wire Line
	3100 2400 3200 2400
Wire Wire Line
	3200 1800 3700 1800
Connection ~ 3200 2100
Connection ~ 3200 2400
Wire Wire Line
	4600 2500 4700 2500
Wire Wire Line
	4700 2500 4700 2100
Wire Wire Line
	4700 2100 4700 1800
Wire Wire Line
	4700 2500 4800 2500
Wire Wire Line
	4100 1800 4700 1800
Wire Wire Line
	4800 2100 4700 2100
Connection ~ 4700 2500
Connection ~ 4700 2100
Wire Wire Line
	5200 2500 5300 2500
Wire Wire Line
	5300 2500 5400 2500
Wire Wire Line
	5600 2200 5300 2200
Wire Wire Line
	5300 2200 5300 2500
Wire Wire Line
	5600 1900 5300 1900
Wire Wire Line
	5300 1900 5300 2100
Wire Wire Line
	5300 2100 5300 2200
Wire Wire Line
	5200 1500 5300 1500
Wire Wire Line
	5300 1500 5300 1900
Wire Wire Line
	5200 2100 5300 2100
Connection ~ 5300 1900
Connection ~ 5300 2200
Connection ~ 5300 2100
Connection ~ 5300 2500
Wire Wire Line
	6400 2200 6300 2200
Wire Wire Line
	6300 2200 6300 2600
Wire Wire Line
	6300 2600 6400 2600
Wire Wire Line
	6100 2600 6000 2600
Wire Wire Line
	6000 2200 6100 2200
Wire Wire Line
	6100 2200 6100 2600
Wire Wire Line
	5900 1900 6100 1900
Wire Wire Line
	6100 1900 6100 2200
Wire Wire Line
	6300 2600 6200 2600
Wire Wire Line
	6200 2600 6100 2600
Wire Wire Line
	6100 1900 6200 1900
Wire Wire Line
	6100 1900 6100 1700
Wire Wire Line
	6200 2600 6200 3300
Connection ~ 6100 2600
Connection ~ 6100 2200
Connection ~ 6300 2600
Connection ~ 6100 1900
Connection ~ 6200 2600
Text Label 6100 1700 1    70   ~ 0
FULL_WAVE_RECT
Wire Wire Line
	7400 2400 7600 2400
Wire Wire Line
	7600 2400 7900 2400
Wire Wire Line
	8000 2400 7900 2400
Connection ~ 7600 2400
Connection ~ 7900 2400
Wire Wire Line
	7000 5400 6900 5400
Wire Wire Line
	6900 5400 6900 4000
Wire Wire Line
	8700 2300 8600 2300
Wire Wire Line
	8700 2300 8800 2300
Wire Wire Line
	8800 2300 8900 2300
Wire Wire Line
	8700 1900 8700 2300
Wire Wire Line
	8800 1900 8700 1900
Wire Wire Line
	7900 1900 8700 1900
Wire Wire Line
	8000 2200 7900 2200
Wire Wire Line
	7900 2200 7900 1900
Wire Wire Line
	6900 4000 8800 4000
Wire Wire Line
	8800 3100 8800 2300
Wire Wire Line
	8800 3100 8900 3100
Connection ~ 8700 2300
Connection ~ 8700 1900
Connection ~ 8800 2300
Text Label 8900 3100 0    70   ~ 0
ENVELOPE
Wire Wire Line
	9300 2300 9400 2300
Wire Wire Line
	9400 1800 9500 1800
Wire Wire Line
	9500 1800 9500 1300
Wire Wire Line
	9500 1300 9300 1300
Wire Wire Line
	8700 1300 8700 1700
Wire Wire Line
	8600 1300 8700 1300
Wire Wire Line
	8800 1700 8700 1700
Wire Wire Line
	9000 1300 8700 1300
Connection ~ 8700 1300
Wire Wire Line
	7600 5500 7700 5500
Wire Wire Line
	7700 5500 7700 5900
Wire Wire Line
	7500 5900 7700 5900
Wire Wire Line
	7700 5500 7900 5500
Wire Wire Line
	7700 5900 7800 5900
Connection ~ 7700 5500
Connection ~ 7700 5900
Text Label 7800 5900 0    70   ~ 0
~GATE
Wire Wire Line
	9700 5600 9800 5600
Wire Wire Line
	6800 5600 6900 5600
Wire Wire Line
	6900 5600 7000 5600
Wire Wire Line
	6900 5600 6900 5900
Wire Wire Line
	7100 5900 6900 5900
Connection ~ 6900 5900
Connection ~ 6900 5600
Wire Wire Line
	8500 5500 8400 5500
Wire Wire Line
	8700 5300 8400 5300
Wire Wire Line
	8600 4900 8400 4900
Wire Wire Line
	8400 4900 8400 5200
Wire Wire Line
	8400 5200 8400 5300
Wire Wire Line
	8400 5500 8400 5300
Wire Wire Line
	8300 5500 8400 5500
Wire Wire Line
	8300 5200 8400 5200
Connection ~ 8400 5200
Connection ~ 8400 5300
Connection ~ 8400 5500
Wire Wire Line
	7800 4700 7800 4600
Wire Wire Line
	6400 5600 6300 5600
Wire Wire Line
	4300 3700 4300 3600
Wire Wire Line
	4300 4500 4300 4200
Wire Wire Line
	4300 4200 4300 4100
Wire Wire Line
	4400 4200 4300 4200
Connection ~ 4300 4200
Wire Wire Line
	9500 4300 9200 4300
Wire Wire Line
	9200 4300 9200 4700
Wire Wire Line
	9200 4700 9300 4700
Wire Wire Line
	9200 4300 9100 4300
Connection ~ 9200 4300
Wire Wire Line
	9800 4300 10000 4300
Wire Wire Line
	10000 4300 10000 4800
Wire Wire Line
	10000 4800 9900 4800
Wire Wire Line
	9000 5300 9200 5300
Wire Wire Line
	9200 5300 9200 5600
Wire Wire Line
	9300 5600 9200 5600
Wire Wire Line
	9100 5600 9200 5600
Wire Wire Line
	9000 4900 9200 4900
Wire Wire Line
	9200 4900 9200 5200
Wire Wire Line
	9200 5200 9200 5300
Wire Wire Line
	9300 4900 9200 4900
Wire Wire Line
	9200 5200 9300 5200
Connection ~ 9200 5600
Connection ~ 9200 5300
Connection ~ 9200 4900
Connection ~ 9200 5200
Text Label 9300 5200 0    70   ~ 0
GATE
Wire Wire Line
	5400 4300 5500 4300
Wire Wire Line
	5500 4300 5500 4400
Wire Wire Line
	5600 4300 5500 4300
Connection ~ 5500 4300
Wire Wire Line
	6000 4300 6100 4300
Wire Wire Line
	6100 4300 6100 4400
Wire Wire Line
	5200 4300 5100 4300
Wire Wire Line
	5100 4300 5000 4300
Wire Wire Line
	5100 4300 5100 4400
Connection ~ 5100 4300
Text Label 5100 4400 3    70   ~ 0
CLIP
Wire Wire Line
	7800 5100 7800 5200
Wire Wire Line
	7800 5200 7900 5200
Wire Wire Line
	2600 2400 2600 1500
Wire Wire Line
	2600 1500 4800 1500
Wire Wire Line
	2700 2400 2600 2400
Wire Wire Line
	2500 2400 2600 2400
Connection ~ 2600 2400
Wire Wire Line
	2200 2400 2100 2400
Text GLabel 2100 2400 0    70   BiDi ~ 0
AMP_OUT
$Comp
L ears_xml-eagle-import:A4L-LOC #FRAME1
U 1 1 73DA64CA
P 900 7400
AR Path="/73DA64CA" Ref="#FRAME1"  Part="1" 
AR Path="/5EF91FAC/73DA64CA" Ref="#FRAME1"  Part="1" 
F 0 "#FRAME1" H 900 7400 50  0001 C CNN
F 1 "A4L-LOC" H 900 7400 50  0001 C CNN
F 2 "" H 900 7400 50  0001 C CNN
F 3 "" H 900 7400 50  0001 C CNN
	1    900  7400
	1    0    0    -1  
$EndComp
$Comp
L ears_xml-eagle-import:LM324PW IC3
U 1 1 5ED25CA7
P 8300 2300
AR Path="/5ED25CA7" Ref="IC3"  Part="1" 
AR Path="/5EF91FAC/5ED25CA7" Ref="IC3"  Part="1" 
F 0 "IC3" H 8400 2425 59  0001 L BNN
F 1 "LM324PW" H 8400 2100 59  0001 L BNN
F 2 "Package_DIP:DIP-14_W7.62mm" H 8300 2300 50  0001 C CNN
F 3 "" H 8300 2300 50  0001 C CNN
	1    8300 2300
	1    0    0    1   
$EndComp
$Comp
L ears_xml-eagle-import:LM324PW IC3
U 2 1 5ED25CAB
P 9100 1800
AR Path="/5ED25CAB" Ref="IC3"  Part="2" 
AR Path="/5EF91FAC/5ED25CAB" Ref="IC3"  Part="2" 
F 0 "IC3" H 9200 1925 59  0001 L BNN
F 1 "LM324PW" H 9200 1600 59  0001 L BNN
F 2 "Package_DIP:DIP-14_W7.62mm" H 9100 1800 50  0001 C CNN
F 3 "" H 9100 1800 50  0001 C CNN
	2    9100 1800
	1    0    0    1   
$EndComp
$Comp
L ears_xml-eagle-import:LM324PW IC3
U 3 1 5ED25CAF
P 3600 2500
AR Path="/5ED25CAF" Ref="IC3"  Part="3" 
AR Path="/5EF91FAC/5ED25CAF" Ref="IC3"  Part="3" 
F 0 "IC3" H 3700 2625 59  0001 L BNN
F 1 "LM324PW" H 3700 2300 59  0001 L BNN
F 2 "Package_DIP:DIP-14_W7.62mm" H 3600 2500 50  0001 C CNN
F 3 "" H 3600 2500 50  0001 C CNN
	3    3600 2500
	1    0    0    1   
$EndComp
$Comp
L ears_xml-eagle-import:LM324PW IC3
U 4 1 5ED25CB3
P 5700 2600
AR Path="/5ED25CB3" Ref="IC3"  Part="4" 
AR Path="/5EF91FAC/5ED25CB3" Ref="IC3"  Part="4" 
F 0 "IC3" H 5800 2725 59  0001 L BNN
F 1 "LM324PW" H 5800 2400 59  0001 L BNN
F 2 "Package_DIP:DIP-14_W7.62mm" H 5700 2600 50  0001 C CNN
F 3 "" H 5700 2600 50  0001 C CNN
	4    5700 2600
	1    0    0    1   
$EndComp
$Comp
L ears_xml-eagle-import:R-US_R0402 R32
U 1 1 4FD3D89D
P 2900 2400
AR Path="/4FD3D89D" Ref="R32"  Part="1" 
AR Path="/5EF91FAC/4FD3D89D" Ref="R32"  Part="1" 
F 0 "R32" H 2750 2459 59  0000 L BNN
F 1 "200k" H 2750 2270 59  0000 L BNN
F 2 "Resistor_THT:R_Axial_DIN0207_L6.3mm_D2.5mm_P7.62mm_Horizontal" H 2900 2400 50  0001 C CNN
F 3 "" H 2900 2400 50  0001 C CNN
	1    2900 2400
	1    0    0    -1  
$EndComp
$Comp
L ears_xml-eagle-import:R-US_R0402 R33
U 1 1 54FF942E
P 3900 1800
AR Path="/54FF942E" Ref="R33"  Part="1" 
AR Path="/5EF91FAC/54FF942E" Ref="R33"  Part="1" 
F 0 "R33" H 3750 1859 59  0000 L BNN
F 1 "100k" H 3750 1670 59  0000 L BNN
F 2 "Resistor_THT:R_Axial_DIN0207_L6.3mm_D2.5mm_P7.62mm_Horizontal" H 3900 1800 50  0001 C CNN
F 3 "" H 3900 1800 50  0001 C CNN
	1    3900 1800
	1    0    0    -1  
$EndComp
$Comp
L ears_xml-eagle-import:R-US_R0402 R30
U 1 1 5ABE426C
P 5800 2200
AR Path="/5ABE426C" Ref="R30"  Part="1" 
AR Path="/5EF91FAC/5ABE426C" Ref="R30"  Part="1" 
F 0 "R30" H 5650 2259 59  0000 L BNN
F 1 "200k" H 5650 2070 59  0000 L BNN
F 2 "Resistor_THT:R_Axial_DIN0207_L6.3mm_D2.5mm_P7.62mm_Horizontal" H 5800 2200 50  0001 C CNN
F 3 "" H 5800 2200 50  0001 C CNN
	1    5800 2200
	1    0    0    -1  
$EndComp
$Comp
L ears_xml-eagle-import:C-USC0402 C14
U 1 1 61220FF8
P 5700 1900
AR Path="/61220FF8" Ref="C14"  Part="1" 
AR Path="/5EF91FAC/61220FF8" Ref="C14"  Part="1" 
F 0 "C14" H 5740 1925 59  0000 L BNN
F 1 "1.0n" H 5740 1735 59  0000 L BNN
F 2 "Capacitor_THT:C_Disc_D5.0mm_W2.5mm_P5.00mm" H 5700 1900 50  0001 C CNN
F 3 "" H 5700 1900 50  0001 C CNN
	1    5700 1900
	0    -1   -1   0   
$EndComp
$Comp
L ears_xml-eagle-import:PJ301_THONKICONN6 J4
U 1 1 2A89DB3B
P 10000 5700
AR Path="/2A89DB3B" Ref="J4"  Part="1" 
AR Path="/5EF91FAC/2A89DB3B" Ref="J4"  Part="1" 
F 0 "J4" H 9900 5860 59  0000 L BNN
F 1 "PJ301_THONKICONN6" H 10000 5700 50  0001 C CNN
F 2 "ears_xml:MJ-3536N" H 10000 5700 50  0001 C CNN
F 3 "" H 10000 5700 50  0001 C CNN
	1    10000 5700
	1    0    0    -1  
$EndComp
$Comp
L ears_xml-eagle-import:PJ301_THONKICONN6 J3
U 1 1 D6A0AFFD
P 9600 2400
AR Path="/D6A0AFFD" Ref="J3"  Part="1" 
AR Path="/5EF91FAC/D6A0AFFD" Ref="J3"  Part="1" 
F 0 "J3" H 9500 2560 59  0000 L BNN
F 1 "PJ301_THONKICONN6" H 9600 2400 50  0001 C CNN
F 2 "ears_xml:MJ-3536N" H 9600 2400 50  0001 C CNN
F 3 "" H 9600 2400 50  0001 C CNN
	1    9600 2400
	1    0    0    -1  
$EndComp
$Comp
L ears_xml-eagle-import:DIODE-SOD523 D7
U 1 1 63CE81D8
P 3800 2100
AR Path="/63CE81D8" Ref="D7"  Part="1" 
AR Path="/5EF91FAC/63CE81D8" Ref="D7"  Part="1" 
F 0 "D7" H 3900 2119 59  0000 L BNN
F 1 "1N4148" H 3900 2009 59  0000 L BNN
F 2 "Diode_THT:D_DO-35_SOD27_P7.62mm_Horizontal" H 3800 2100 50  0001 C CNN
F 3 "" H 3800 2100 50  0001 C CNN
	1    3800 2100
	-1   0    0    1   
$EndComp
$Comp
L ears_xml-eagle-import:DIODE-SOD523 D8
U 1 1 F1C66DDD
P 4500 2500
AR Path="/F1C66DDD" Ref="D8"  Part="1" 
AR Path="/5EF91FAC/F1C66DDD" Ref="D8"  Part="1" 
F 0 "D8" H 4600 2519 59  0000 L BNN
F 1 "1N4148" H 4600 2409 59  0000 L BNN
F 2 "Diode_THT:D_DO-35_SOD27_P7.62mm_Horizontal" H 4500 2500 50  0001 C CNN
F 3 "" H 4500 2500 50  0001 C CNN
	1    4500 2500
	-1   0    0    1   
$EndComp
$Comp
L ears_xml-eagle-import:R-US_R0402 R35
U 1 1 11428D87
P 5000 2500
AR Path="/11428D87" Ref="R35"  Part="1" 
AR Path="/5EF91FAC/11428D87" Ref="R35"  Part="1" 
F 0 "R35" H 4850 2559 59  0000 L BNN
F 1 "100k" H 4850 2370 59  0000 L BNN
F 2 "Resistor_THT:R_Axial_DIN0207_L6.3mm_D2.5mm_P7.62mm_Horizontal" H 5000 2500 50  0001 C CNN
F 3 "" H 5000 2500 50  0001 C CNN
	1    5000 2500
	1    0    0    -1  
$EndComp
$Comp
L ears_xml-eagle-import:R-US_R0402 R31
U 1 1 F3362335
P 5000 1500
AR Path="/F3362335" Ref="R31"  Part="1" 
AR Path="/5EF91FAC/F3362335" Ref="R31"  Part="1" 
F 0 "R31" H 4850 1559 59  0000 L BNN
F 1 "200k" H 4850 1370 59  0000 L BNN
F 2 "Resistor_THT:R_Axial_DIN0207_L6.3mm_D2.5mm_P7.62mm_Horizontal" H 5000 1500 50  0001 C CNN
F 3 "" H 5000 1500 50  0001 C CNN
	1    5000 1500
	1    0    0    -1  
$EndComp
$Comp
L ears_xml-eagle-import:R-US_R0402 R34
U 1 1 89183EAC
P 5000 2100
AR Path="/89183EAC" Ref="R34"  Part="1" 
AR Path="/5EF91FAC/89183EAC" Ref="R34"  Part="1" 
F 0 "R34" H 4850 2159 59  0000 L BNN
F 1 "100k" H 4850 1970 59  0000 L BNN
F 2 "Resistor_THT:R_Axial_DIN0207_L6.3mm_D2.5mm_P7.62mm_Horizontal" H 5000 2100 50  0001 C CNN
F 3 "" H 5000 2100 50  0001 C CNN
	1    5000 2100
	1    0    0    -1  
$EndComp
$Comp
L ears_xml-eagle-import:DIODE-SOD523 D5
U 1 1 74D64CB6
P 6500 2600
AR Path="/74D64CB6" Ref="D5"  Part="1" 
AR Path="/5EF91FAC/74D64CB6" Ref="D5"  Part="1" 
F 0 "D5" H 6600 2619 59  0000 L BNN
F 1 "1N4148" H 6600 2509 59  0000 L BNN
F 2 "Diode_THT:D_DO-35_SOD27_P7.62mm_Horizontal" H 6500 2600 50  0001 C CNN
F 3 "" H 6500 2600 50  0001 C CNN
	1    6500 2600
	1    0    0    -1  
$EndComp
$Comp
L ears_xml-eagle-import:DIODE-SOD523 D6
U 1 1 0BC98D1D
P 6500 2200
AR Path="/0BC98D1D" Ref="D6"  Part="1" 
AR Path="/5EF91FAC/0BC98D1D" Ref="D6"  Part="1" 
F 0 "D6" H 6600 2219 59  0000 L BNN
F 1 "1N4148" H 6600 2109 59  0000 L BNN
F 2 "Diode_THT:D_DO-35_SOD27_P7.62mm_Horizontal" H 6500 2200 50  0001 C CNN
F 3 "" H 6500 2200 50  0001 C CNN
	1    6500 2200
	-1   0    0    1   
$EndComp
$Comp
L ears_xml-eagle-import:C-USC0402 C11
U 1 1 6062EDB6
P 7600 2700
AR Path="/6062EDB6" Ref="C11"  Part="1" 
AR Path="/5EF91FAC/6062EDB6" Ref="C11"  Part="1" 
F 0 "C11" H 7640 2725 59  0000 L BNN
F 1 "1u" H 7640 2535 59  0000 L BNN
F 2 "Capacitor_THT:CP_Radial_D5.0mm_P2.50mm" H 7600 2700 50  0001 C CNN
F 3 "" H 7600 2700 50  0001 C CNN
	1    7600 2700
	1    0    0    -1  
$EndComp
$Comp
L ears_xml-eagle-import:R-US_R0402 R27
U 1 1 870BB6FF
P 7900 2950
AR Path="/870BB6FF" Ref="R27"  Part="1" 
AR Path="/5EF91FAC/870BB6FF" Ref="R27"  Part="1" 
F 0 "R27" H 7750 3009 59  0000 L BNN
F 1 "1.0M" H 7750 2820 59  0000 L BNN
F 2 "Resistor_THT:R_Axial_DIN0207_L6.3mm_D2.5mm_P7.62mm_Horizontal" H 7900 2950 50  0001 C CNN
F 3 "" H 7900 2950 50  0001 C CNN
	1    7900 2950
	0    -1   -1   0   
$EndComp
$Comp
L ears_xml-eagle-import:R-US_R0402 R2
U 1 1 A56D31D0
P 9100 2300
AR Path="/A56D31D0" Ref="R2"  Part="1" 
AR Path="/5EF91FAC/A56D31D0" Ref="R2"  Part="1" 
F 0 "R2" H 8950 2359 59  0000 L BNN
F 1 "510" H 8950 2170 59  0000 L BNN
F 2 "Resistor_THT:R_Axial_DIN0207_L6.3mm_D2.5mm_P7.62mm_Horizontal" H 9100 2300 50  0001 C CNN
F 3 "" H 9100 2300 50  0001 C CNN
	1    9100 2300
	1    0    0    -1  
$EndComp
$Comp
L ears_xml-eagle-import:R-US_R0402 R9
U 1 1 EC36DA1B
P 8400 1300
AR Path="/EC36DA1B" Ref="R9"  Part="1" 
AR Path="/5EF91FAC/EC36DA1B" Ref="R9"  Part="1" 
F 0 "R9" H 8250 1359 59  0000 L BNN
F 1 "20k" H 8250 1170 59  0000 L BNN
F 2 "Resistor_THT:R_Axial_DIN0207_L6.3mm_D2.5mm_P7.62mm_Horizontal" H 8400 1300 50  0001 C CNN
F 3 "" H 8400 1300 50  0001 C CNN
	1    8400 1300
	-1   0    0    1   
$EndComp
$Comp
L ears_xml-eagle-import:TEST-POINT3X5 TP1
U 1 1 E5F42BB8
P 6200 1900
AR Path="/E5F42BB8" Ref="TP1"  Part="1" 
AR Path="/5EF91FAC/E5F42BB8" Ref="#TP1"  Part="1" 
F 0 "#TP1" H 6100 2000 59  0000 L BNN
F 1 "TEST-POINT3X5" H 6100 1800 59  0000 L BNN
F 2 "ears_xml:PAD.03X.05" H 6200 1900 50  0001 C CNN
F 3 "" H 6200 1900 50  0001 C CNN
	1    6200 1900
	1    0    0    -1  
$EndComp
$Comp
L ears_xml-eagle-import:R-US_R0402 R3
U 1 1 02D3F61B
P 9500 5600
AR Path="/02D3F61B" Ref="R3"  Part="1" 
AR Path="/5EF91FAC/02D3F61B" Ref="R3"  Part="1" 
F 0 "R3" H 9350 5659 59  0000 L BNN
F 1 "510" H 9350 5470 59  0000 L BNN
F 2 "Resistor_THT:R_Axial_DIN0207_L6.3mm_D2.5mm_P7.62mm_Horizontal" H 9500 5600 50  0001 C CNN
F 3 "" H 9500 5600 50  0001 C CNN
	1    9500 5600
	1    0    0    -1  
$EndComp
$Comp
L ears_xml-eagle-import:R-US_R0402 R16
U 1 1 8EFDB306
P 6600 5600
AR Path="/8EFDB306" Ref="R16"  Part="1" 
AR Path="/5EF91FAC/8EFDB306" Ref="R16"  Part="1" 
F 0 "R16" H 6450 5659 59  0000 L BNN
F 1 "200k" H 6450 5470 59  0000 L BNN
F 2 "Resistor_THT:R_Axial_DIN0207_L6.3mm_D2.5mm_P7.62mm_Horizontal" H 6600 5600 50  0001 C CNN
F 3 "" H 6600 5600 50  0001 C CNN
	1    6600 5600
	1    0    0    -1  
$EndComp
$Comp
L ears_xml-eagle-import:R-US_R0402 R15
U 1 1 DA5CD765
P 8100 5500
AR Path="/DA5CD765" Ref="R15"  Part="1" 
AR Path="/5EF91FAC/DA5CD765" Ref="R15"  Part="1" 
F 0 "R15" H 7950 5559 59  0000 L BNN
F 1 "200k" H 7950 5370 59  0000 L BNN
F 2 "Resistor_THT:R_Axial_DIN0207_L6.3mm_D2.5mm_P7.62mm_Horizontal" H 8100 5500 50  0001 C CNN
F 3 "" H 8100 5500 50  0001 C CNN
	1    8100 5500
	1    0    0    -1  
$EndComp
$Comp
L ears_xml-eagle-import:R-US_R0402 R14
U 1 1 7EF40074
P 8800 4900
AR Path="/7EF40074" Ref="R14"  Part="1" 
AR Path="/5EF91FAC/7EF40074" Ref="R14"  Part="1" 
F 0 "R14" H 8650 4959 59  0000 L BNN
F 1 "200k" H 8650 4770 59  0000 L BNN
F 2 "Resistor_THT:R_Axial_DIN0207_L6.3mm_D2.5mm_P7.62mm_Horizontal" H 8800 4900 50  0001 C CNN
F 3 "" H 8800 4900 50  0001 C CNN
	1    8800 4900
	1    0    0    -1  
$EndComp
$Comp
L ears_xml-eagle-import:C-USC0402 C10
U 1 1 5348BFE7
P 8800 5300
AR Path="/5348BFE7" Ref="C10"  Part="1" 
AR Path="/5EF91FAC/5348BFE7" Ref="C10"  Part="1" 
F 0 "C10" H 8840 5325 59  0000 L BNN
F 1 "68p" H 8840 5135 59  0000 L BNN
F 2 "Capacitor_THT:C_Disc_D5.0mm_W2.5mm_P5.00mm" H 8800 5300 50  0001 C CNN
F 3 "" H 8800 5300 50  0001 C CNN
	1    8800 5300
	0    -1   -1   0   
$EndComp
$Comp
L ears_xml-eagle-import:R-US_R0402 R17
U 1 1 802181D7
P 7300 5900
AR Path="/802181D7" Ref="R17"  Part="1" 
AR Path="/5EF91FAC/802181D7" Ref="R17"  Part="1" 
F 0 "R17" H 7150 5959 59  0000 L BNN
F 1 "200k" H 7150 5770 59  0000 L BNN
F 2 "Resistor_THT:R_Axial_DIN0207_L6.3mm_D2.5mm_P7.62mm_Horizontal" H 7300 5900 50  0001 C CNN
F 3 "" H 7300 5900 50  0001 C CNN
	1    7300 5900
	1    0    0    -1  
$EndComp
$Comp
L ears_xml-eagle-import:R-US_R0402 R13
U 1 1 85BB4E34
P 8100 5200
AR Path="/85BB4E34" Ref="R13"  Part="1" 
AR Path="/5EF91FAC/85BB4E34" Ref="R13"  Part="1" 
F 0 "R13" H 7950 5259 59  0000 L BNN
F 1 "200k" H 7950 5070 59  0000 L BNN
F 2 "Resistor_THT:R_Axial_DIN0207_L6.3mm_D2.5mm_P7.62mm_Horizontal" H 8100 5200 50  0001 C CNN
F 3 "" H 8100 5200 50  0001 C CNN
	1    8100 5200
	1    0    0    -1  
$EndComp
$Comp
L ears_xml-eagle-import:LM324PW IC2
U 1 1 541775CA
P 8800 5600
AR Path="/541775CA" Ref="IC2"  Part="1" 
AR Path="/5EF91FAC/541775CA" Ref="IC2"  Part="1" 
F 0 "IC2" H 8900 5725 59  0001 L BNN
F 1 "LM324PW" H 8900 5400 59  0001 L BNN
F 2 "Package_DIP:DIP-14_W7.62mm" H 8800 5600 50  0001 C CNN
F 3 "" H 8800 5600 50  0001 C CNN
	1    8800 5600
	1    0    0    1   
$EndComp
$Comp
L ears_xml-eagle-import:LM324PW IC2
U 2 1 541775C6
P 7300 5500
AR Path="/541775C6" Ref="IC2"  Part="2" 
AR Path="/5EF91FAC/541775C6" Ref="IC2"  Part="2" 
F 0 "IC2" H 7400 5625 59  0001 L BNN
F 1 "LM324PW" H 7400 5300 59  0001 L BNN
F 2 "Package_DIP:DIP-14_W7.62mm" H 7300 5500 50  0001 C CNN
F 3 "" H 7300 5500 50  0001 C CNN
	2    7300 5500
	1    0    0    1   
$EndComp
$Comp
L ears_xml-eagle-import:LM324PW IC2
U 3 1 541775C2
P 4700 4300
AR Path="/541775C2" Ref="IC2"  Part="3" 
AR Path="/5EF91FAC/541775C2" Ref="IC2"  Part="3" 
F 0 "IC2" H 4800 4425 59  0001 L BNN
F 1 "LM324PW" H 4800 4100 59  0001 L BNN
F 2 "Package_DIP:DIP-14_W7.62mm" H 4700 4300 50  0001 C CNN
F 3 "" H 4700 4300 50  0001 C CNN
	3    4700 4300
	1    0    0    1   
$EndComp
$Comp
L ears_xml-eagle-import:LM324PW IC2
U 4 1 541775DE
P 9600 4800
AR Path="/541775DE" Ref="IC2"  Part="4" 
AR Path="/5EF91FAC/541775DE" Ref="IC2"  Part="4" 
F 0 "IC2" H 9700 4925 59  0001 L BNN
F 1 "LM324PW" H 9700 4600 59  0001 L BNN
F 2 "Package_DIP:DIP-14_W7.62mm" H 9600 4800 50  0001 C CNN
F 3 "" H 9600 4800 50  0001 C CNN
	4    9600 4800
	1    0    0    1   
$EndComp
$Comp
L ears_xml-eagle-import:R-US_R0402 R18
U 1 1 DBD3B1A2
P 4300 3900
AR Path="/DBD3B1A2" Ref="R18"  Part="1" 
AR Path="/5EF91FAC/DBD3B1A2" Ref="R18"  Part="1" 
F 0 "R18" H 4150 3959 59  0000 L BNN
F 1 "20k" H 4150 3770 59  0000 L BNN
F 2 "Resistor_THT:R_Axial_DIN0207_L6.3mm_D2.5mm_P7.62mm_Horizontal" H 4300 3900 50  0001 C CNN
F 3 "" H 4300 3900 50  0001 C CNN
	1    4300 3900
	0    -1   -1   0   
$EndComp
$Comp
L ears_xml-eagle-import:R-US_R0402 R19
U 1 1 FCBADD89
P 4300 4700
AR Path="/FCBADD89" Ref="R19"  Part="1" 
AR Path="/5EF91FAC/FCBADD89" Ref="R19"  Part="1" 
F 0 "R19" H 4150 4759 59  0000 L BNN
F 1 "100k" H 4150 4570 59  0000 L BNN
F 2 "Resistor_THT:R_Axial_DIN0207_L6.3mm_D2.5mm_P7.62mm_Horizontal" H 4300 4700 50  0001 C CNN
F 3 "" H 4300 4700 50  0001 C CNN
	1    4300 4700
	0    -1   -1   0   
$EndComp
$Comp
L ears_xml-eagle-import:R-US_R0402 R11
U 1 1 BC243054
P 5800 4300
AR Path="/BC243054" Ref="R11"  Part="1" 
AR Path="/5EF91FAC/BC243054" Ref="R11"  Part="1" 
F 0 "R11" H 5650 4359 59  0000 L BNN
F 1 "10k" H 5650 4170 59  0000 L BNN
F 2 "Resistor_THT:R_Axial_DIN0207_L6.3mm_D2.5mm_P7.62mm_Horizontal" H 5800 4300 50  0001 C CNN
F 3 "" H 5800 4300 50  0001 C CNN
	1    5800 4300
	-1   0    0    1   
$EndComp
$Comp
L ears_xml-eagle-import:LED3MM LED1
U 1 1 2FDEABF5
P 6100 4500
AR Path="/2FDEABF5" Ref="LED1"  Part="1" 
AR Path="/5EF91FAC/2FDEABF5" Ref="LED1"  Part="1" 
F 0 "LED1" V 6240 4320 59  0000 L BNN
F 1 "WP710A10SEC/J3" V 6325 4320 59  0000 L BNN
F 2 "ears_xml:LED3MM" H 6100 4500 50  0001 C CNN
F 3 "" H 6100 4500 50  0001 C CNN
	1    6100 4500
	1    0    0    -1  
$EndComp
$Comp
L ears_xml-eagle-import:LED3MM LED3
U 1 1 E657225F
P 9700 4300
AR Path="/E657225F" Ref="LED3"  Part="1" 
AR Path="/5EF91FAC/E657225F" Ref="LED3"  Part="1" 
F 0 "LED3" V 9840 4120 59  0000 L BNN
F 1 "WP710A10SEC/J4" V 9925 4120 59  0000 L BNN
F 2 "ears_xml:LED3MM" H 9700 4300 50  0001 C CNN
F 3 "" H 9700 4300 50  0001 C CNN
	1    9700 4300
	0    1    1    0   
$EndComp
$Comp
L ears_xml-eagle-import:R-US_R0402 R10
U 1 1 0A067037
P 8900 4300
AR Path="/0A067037" Ref="R10"  Part="1" 
AR Path="/5EF91FAC/0A067037" Ref="R10"  Part="1" 
F 0 "R10" H 8750 4359 59  0000 L BNN
F 1 "10k" H 8750 4170 59  0000 L BNN
F 2 "Resistor_THT:R_Axial_DIN0207_L6.3mm_D2.5mm_P7.62mm_Horizontal" H 8900 4300 50  0001 C CNN
F 3 "" H 8900 4300 50  0001 C CNN
	1    8900 4300
	1    0    0    -1  
$EndComp
$Comp
L ears_xml-eagle-import:LED3MM LED2
U 1 1 9A2EE95D
P 9200 1300
AR Path="/9A2EE95D" Ref="LED2"  Part="1" 
AR Path="/5EF91FAC/9A2EE95D" Ref="LED2"  Part="1" 
F 0 "LED2" V 9340 1120 59  0000 L BNN
F 1 "AOL-3MWY4" V 9425 1120 59  0000 L BNN
F 2 "ears_xml:LED3MM" H 9200 1300 50  0001 C CNN
F 3 "" H 9200 1300 50  0001 C CNN
	1    9200 1300
	0    1    1    0   
$EndComp
$Comp
L ears_xml-eagle-import:DIODE-SOD523 D4
U 1 1 DB84AB5D
P 5300 4300
AR Path="/DB84AB5D" Ref="D4"  Part="1" 
AR Path="/5EF91FAC/DB84AB5D" Ref="D4"  Part="1" 
F 0 "D4" H 5400 4319 59  0000 L BNN
F 1 "1N4148" H 5400 4209 59  0000 L BNN
F 2 "Diode_THT:D_DO-35_SOD27_P7.62mm_Horizontal" H 5300 4300 50  0001 C CNN
F 3 "" H 5300 4300 50  0001 C CNN
	1    5300 4300
	1    0    0    -1  
$EndComp
$Comp
L ears_xml-eagle-import:C-USC0402 C8
U 1 1 5B18E4FE
P 5500 4500
AR Path="/5B18E4FE" Ref="C8"  Part="1" 
AR Path="/5EF91FAC/5B18E4FE" Ref="C8"  Part="1" 
F 0 "C8" H 5540 4525 59  0000 L BNN
F 1 "1u" H 5540 4335 59  0000 L BNN
F 2 "Capacitor_THT:CP_Radial_D5.0mm_P2.50mm" H 5500 4500 50  0001 C CNN
F 3 "" H 5500 4500 50  0001 C CNN
	1    5500 4500
	1    0    0    -1  
$EndComp
$Comp
L ears_xml-eagle-import:R-US_R0402 R12
U 1 1 9B631616
P 7800 4900
AR Path="/9B631616" Ref="R12"  Part="1" 
AR Path="/5EF91FAC/9B631616" Ref="R12"  Part="1" 
F 0 "R12" H 7650 4959 59  0000 L BNN
F 1 "100k" H 7650 4770 59  0000 L BNN
F 2 "Resistor_THT:R_Axial_DIN0207_L6.3mm_D2.5mm_P7.62mm_Horizontal" H 7800 4900 50  0001 C CNN
F 3 "" H 7800 4900 50  0001 C CNN
	1    7800 4900
	0    -1   -1   0   
$EndComp
$Comp
L ears_xml-eagle-import:C-USC0603 C15
U 1 1 BF5F05B4
P 2300 2400
AR Path="/BF5F05B4" Ref="C15"  Part="1" 
AR Path="/5EF91FAC/BF5F05B4" Ref="C15"  Part="1" 
F 0 "C15" H 2340 2425 59  0000 L BNN
F 1 "4.7u" H 2340 2235 59  0000 L BNN
F 2 "Capacitor_THT:C_Disc_D5.0mm_W2.5mm_P5.00mm" H 2300 2400 50  0001 C CNN
F 3 "" H 2300 2400 50  0001 C CNN
	1    2300 2400
	0    -1   -1   0   
$EndComp
Text Notes 7300 6600 0    85   ~ 0
cc-by-sa
Text Notes 9400 6600 0    85   ~ 0
Envelope follower
Text Notes 6400 1850 0    59   ~ 0
Decay time\nReplaces R23, R24, R28
Text Notes 6400 3100 0    59   ~ 0
Attack time\nReplaces R25, R26, R29
Text Notes 4300 4200 0    59   ~ 0
10V
Text Notes 7300 6800 0    85   ~ 0
Émilie Gillet
Text Notes 7300 7000 0    85   ~ 0
emilie.o.gillet@gmail.com
Wire Wire Line
	6700 2200 6600 2200
Wire Wire Line
	7000 2000 7400 2000
Wire Wire Line
	7400 2000 7400 2400
$Comp
L ears_xml-eagle-import:POT_USVERTICAL_PS R28
U 1 1 716F4200
P 7000 2200
AR Path="/716F4200" Ref="R28"  Part="1" 
AR Path="/5EF91FAC/716F4200" Ref="R28"  Part="1" 
F 0 "R28" H 6850 2259 59  0000 L BNN
F 1 "430k" H 6850 2070 59  0000 L BNN
F 2 "ears_xml:ALPS_POT_VERTICAL_PS" H 7000 2200 50  0001 C CNN
F 3 "" H 7000 2200 50  0001 C CNN
	1    7000 2200
	0    -1   -1   0   
$EndComp
$Comp
L ears_xml-eagle-import:POT_USVERTICAL_PS R29
U 1 1 0B6F6D7A
P 7050 2600
AR Path="/0B6F6D7A" Ref="R29"  Part="1" 
AR Path="/5EF91FAC/0B6F6D7A" Ref="R29"  Part="1" 
F 0 "R29" H 6900 2659 59  0000 L BNN
F 1 "100k" H 6900 2470 59  0000 L BNN
F 2 "ears_xml:ALPS_POT_VERTICAL_PS" H 7050 2600 50  0001 C CNN
F 3 "" H 7050 2600 50  0001 C CNN
	1    7050 2600
	0    1    1    0   
$EndComp
Wire Wire Line
	6600 2600 6750 2600
Wire Wire Line
	7050 2800 7400 2800
Wire Wire Line
	7400 2800 7400 2400
Connection ~ 7400 2400
Text GLabel 9700 5900 2    50   BiDi ~ 0
GND_PCB3
Text GLabel 1550 6400 0    50   BiDi ~ 0
GND_PCB3
Text GLabel 1550 5850 0    50   BiDi ~ 0
GND_PCB2
Text GLabel 2950 6400 0    50   BiDi ~ 0
GND_PCB4
Text GLabel 2950 5850 0    50   BiDi ~ 0
GND_PCB3
Wire Wire Line
	7600 2400 7600 2600
Wire Wire Line
	7900 2400 7900 2750
Wire Wire Line
	3500 3300 6200 3300
Wire Wire Line
	3500 4400 4400 4400
Connection ~ 8800 3100
Text GLabel 7800 4600 0    50   BiDi ~ 0
VEE_PCB3
Text GLabel 6300 5600 0    50   BiDi ~ 0
VCC_PCB3
Text GLabel 4300 3600 2    50   BiDi ~ 0
VCC_PCB3
Wire Wire Line
	3500 3300 3500 4400
Wire Wire Line
	8800 3100 8800 4000
Wire Wire Line
	1550 5850 1550 6400
Wire Wire Line
	2950 5850 2950 6400
NoConn ~ 9400 2400
NoConn ~ 9800 5700
NoConn ~ 7300 2200
NoConn ~ 7350 2600
Wire Wire Line
	6600 6400 6400 6400
$Comp
L ears_xml-eagle-import:POT_USVERTICAL_PS R21
U 1 1 083A2446
P 6900 6400
AR Path="/083A2446" Ref="R21"  Part="1" 
AR Path="/5EF91FAC/083A2446" Ref="R21"  Part="1" 
F 0 "R21" H 6750 6459 59  0000 L BNN
F 1 "100k" H 6750 6270 59  0000 L BNN
F 2 "ears_xml:ALPS_POT_VERTICAL_PS" H 6900 6400 50  0001 C CNN
F 3 "" H 6900 6400 50  0001 C CNN
	1    6900 6400
	0    -1   -1   0   
$EndComp
Wire Wire Line
	6900 5900 6900 6200
Text Notes 6000 6650 0    50   ~ 0
Gate treshold\nReplaces R20, R21, R22
NoConn ~ 7200 6400
$EndSCHEMATC
